{
    "editor": [
        {
            "icon": "",
            "key": "settings",
            "header": "Settings",
            "disabled": false,
            "fields": [
                {
                    "key": "image",
                    "header": "Image",
                    "type": "image"
                },
                {
                    "key": "headline",
                    "header": "Header",
                    "type": "text"
                },
                {
                    "key": "description",
                    "header": "Description",
                    "type": "text"
                },
                {
                    "key": "price",
                    "header": "Price",
                    "type": "text"
                }
            ]
        }
    ],
    "config": {
        "settings": {
            "image": "https://frontend.apps.playcent.com/a268118075e54eaf98757aee7841a685/assets/images-37-2-696x391.jpeg",
            "headline": "Premium SHIBA",
            "description": "#premium shiba",
            "price": "10"
        }
    }
}